o_labs/mq_1/labs/verification_plan/Regression_Run_Tue-Nov-20/run1_1.log
# ----------------------------------------------------------------
# AVM-3.0-update-2-MTI  (C) 2005-2007 Mentor Graphics Corporation
# ----------------------------------------------------------------
# ** MESSAGE: ../tb/sv/fpu_master.sv{140) @ 0: env.master [Master] master request: FPU Request: a=-1.380435e+032, b=-4.624987e-032, op=OP_DIV, round = ROUND_EVEN
# ** MESSAGE: ../tb/sv/fpu_driver.sv{66) @ 15: env.driver [driver] Getting Request
# ** MESSAGE: ../tb/sv/fpu_driver.sv{69) @ 15: env.driver [driver] Issuing Request
# ** MESSAGE: ../tb/sv/fpu_monitor.sv{51) @ 100: env.monitor [env.monitor] Getting Request
# ** MESSAGE: ../tb/sv/fpu_monitor.sv{87) @ 100: env.monitor [monitor] request: FPU Request: a=-1.380435e+032, b=-4.624987e-032, op=OP_DIV, round = ROUND_EVEN
# ** MESSAGE: ../tb/sv/fpu_tlm_adapter.sv{51) @ 100: env.adapter [Adapter] master --> request: FPU Request: a=-1.380435e+032, b=-4.624987e-032, op=OP_DIV, round = ROUND_EVEN
# ** MESSAGE: ../tb/sv/fpu_tlm_dpi_c.sv{47) @ 100: env.TLM [tlm] TLM request: FPU Request: a=-1.380435e+032, b=-4.624987e-032, op=OP_DIV, round = ROUND_EVEN
# ** MESSAGE: ../tb/sv/fpu_tlm_dpi_c.sv{53) @ 100: env.TLM [tlm] TLM response: FPU Response: a=-1.380435e+032, b=-4.624987e-032, op=OP_DIV, round = ROUND_EVEN, result = 1.#INF00e+000 with status =00000000
# ** MESSAGE: ../tb/sv/fpu_tlm_adapter.sv{59) @ 100: env.adapter [Master] master <-- response: FPU Response: a=-1.380435e+032, b=-4.624987e-032, op=OP_DIV, round = ROUND_EVEN, result = 1.#INF00e+000 with status =00000000
# ** MESSAGE: ../tb/sv/fpu_driver.sv{74) @ 105: env.driver [driver] Waiting for Response
# ** MESSAGE: ../tb/sv/fpu_driver.sv{79) @ 450: env.driver [driver] Putting Response
# ** MESSAGE: ../tb/sv/fpu_master.sv{147) @ 450: env.master [Master] master response: FPU Response: a=-1.380435e+032, b=-4.624987e-032, op=OP_DIV, round = ROUND_EVEN, result = 1.#INF00e+000 with status =00010011
# ** MESSAGE: ../tb/sv/fpu_master.sv{140) @ 450: env.master [Master] master request: FPU Request: a=-1.117245e-004, b=1.303497e+014, op=OP_SUB, round = ROUND_ZERO
# ** MESSAGE: ../tb/sv/fpu_driver.sv{66) @ 460: env.driver [driver] Getting Request
# ** MESSAGE: ../tb/sv/fpu_driver.sv{69) @ 460: env.driver [driver] Issuing Request
# ** MESSAGE: ../tb/sv/fpu_monitor.sv{57) @ 460: env.monitor [env.monitor] Getting Response
# ** MESSAGE: ../tb/sv/fpu_monitor.sv{127) @ 460: env.monitor [env.monitor] response: FPU Response: a=-1.380435e+032, b=-4.624987e-032, op=OP_DIV, round = ROUND_EVEN, result = 1.#INF00e+000 with status =00010011
# ** MESSAGE: @ 460: env.comparator [Comparator Match] FPU Response: a=-1.380435e+032, b=-4.624987e-032, op=OP_DIV, round = ROUND_EVEN, result = 1.#INF00e+000 with status =00000000
# ** MESSAGE: ../tb/sv/fpu_coverage.sv{137) @ 460: env.coverage [env.coverage] cover respose: FPU Response: a=-1.380435e+032, b=-4.624987e-032, op=OP_DIV, round = ROUND_EVEN, result = 1.#INF00e+000 with status =00010011
# ** MESSAGE: ../tb/sv/fpu_monitor.sv{51) @ 540: env.monitor [env.monitor] Getting Request
# ** MESSAGE: ../tb/sv/fpu_monitor.sv{87) @ 540: env.monitor [monitor] request: FPU Request: a=-1.117245e-004, b=1.303497e+014, op=OP_SUB, round = ROUND_ZERO
# ** MESSAGE: ../tb/sv/fpu_tlm_adapter.sv{51) @ 540: env.adapter [Adapter] master --> request: FPU Request: a=-1.117245e-004, b=1.303497e+014, op=OP_SUB, round = ROUND_ZERO
# ** MESSAGE: ../tb/sv/fpu_tlm_dpi_c.sv{47) @ 540: env.TLM [tlm] TLM request: FPU Request: a=-1.117245e-004, b=1.303497e+014, op=OP_SUB, round = ROUND_ZERO
# ** MESSAGE: ../tb/sv/fpu_tlm_dpi_c.sv{53) @ 540: env.TLM [tlm] TLM response: FPU Response: a=-1.117245e-004, b=1.303497e+014, op=OP_SUB, round = ROUND_ZERO, result = -1.303497e+014 with status =00000000
# ** MESSAGE: ../tb/sv/fpu_tlm_adapter.sv{59) @ 540: env.adapter [Master] master <-- response: FPU Response: a=-1.117245e-004, b=1.303497e+014, op=OP_SUB, round = ROUND_ZERO, result = -1.303497e+014 with status =00000000
# ** MESSAGE: ../tb/sv/fpu_driver.sv{74) @ 545: env.driver [driver] Waiting for Response
# ** MESSAGE: ../tb/sv/fpu_driver.sv{79) @ 620: env.driver [driver] Putting Response
# ** MESSAGE: ../tb/sv/fpu_master.sv{147) @ 620: env.master [Master] master response: FPU Response: a=-1.117245e-004, b=1.303497e+014, op=OP_SUB, round = ROUND_ZERO, result = -1.303497e+014 with status =00000001
# ** MESSAGE: ../tb/sv/fpu_master.sv{140) @ 620: env.master [Master] master request: FPU Request: a=-2.961687e-024, b=-1.254015e-004, op=OP_ADD, round = ROUND_ZERO
# ** MESSAGE: ../tb/sv/fpu_driver.sv{66) @ 630: env.driver [driver] Getting Request
# ** MESSAGE: ../tb/sv/fpu_driver.sv{69) @ 630: env.driver [driver] Issuing Request
# ** MESSAGE: ../tb/sv/fpu_monitor.sv{57) @ 630: env.monitor [env.monitor] Getting Response
# ** MESSAGE: ../tb/sv/fpu_monitor.sv{127) @ 630: env.monitor [env.monitor] response: FPU Response: a=-1.117245e-004, b=1.303497e+014, op=OP_SUB, round = ROUND_ZERO, result = -1.303497e+014 with status =00000001
# ** MESSAGE: @ 630: env.comparator [Comparator Match] FPU Response: a=-1.117245e-004, b=1.303497e+014, op=OP_SUB, round = ROUND_ZERO, result = -1.303497e+014 with status =00000000
# ** MESSAGE: ../tb/sv/fpu_coverage.sv{137) @ 630: env.coverage [env.coverage] cover respose: FPU Response: a=-1.117245e-004, b=1.303497e+014, op=OP_SUB, round = ROUND_ZERO, result = -1.303497e+014 with status =00000001
# ** MESSAGE: ../tb/sv/fpu_monitor.sv{51) @ 750: env.monitor [env.monitor] Getting Request
# ** MESSAGE: ../tb/sv/fpu_monitor.sv{87) @ 750: env.monitor [monitor] request: FPU Request: a=-2.961687e-024, b=-1.254015e-004, op=OP_ADD, round = ROUND_ZERO
# ** MESSAGE: ../tb/sv/fpu_tlm_adapter.sv{51) @ 750: env.adapter [Adapter] master --> request: FPU Request: a=-2.961687e-024, b=-1.254015e-004, op=OP_ADD, round = ROUND_ZERO
# ** MESSAGE: ../tb/sv/fpu_tlm_dpi_c.sv{47) @ 750: env.TLM [tlm] TLM request: FPU Request: a=-2.961687e-024, b=-1.254015e-004, op=OP_ADD, round = ROUND_ZERO
# ** MESSAGE: ../tb/sv/fpu_tlm_dpi_c.sv{53) @ 750: env.TLM [tlm] TLM response: FPU Response: a=-2.961687e-024, b=-1.254015e-004, op=OP_ADD, round = ROUND_ZERO, result = -1.254015e-004 with status =00000000
# ** MESSAGE: ../tb/sv/fpu_tlm_adapter.sv{59) @ 750: env.adapter [Master] master <-- response: FPU Response: a=-2.961687e-024, b=-1.254015e-004, op=OP_ADD, round = ROUND_ZERO, result = -1.254015e-004 with status =00000000
# ** MESSAGE: ../tb/sv/fpu_driver.sv{74) @ 755: env.driver [driver] Waiting for Response
# ** MESSAGE: ../tb/sv/fpu_driver.sv{79) @ 830: env.driver [driver] Putting Response
# ** MESSAGE: ../tb/sv/fpu_master.sv{147) @ 830: env.master [Master] master response: FPU Response: a=-2.961687e-024, b=-1.254015e-004, op=OP_ADD, round = ROUND_ZERO, result = -1.254015e-004 with status =00000001
# ** MESSAGE: ../tb/sv/fpu_master.sv{140) @ 830: env.master [Master] master request: FPU Request: a=-1.214357e+000, b=3.056995e-004, op=OP_SQR, round = ROUND_EVEN
# ** MESSAGE: ../tb/sv/fpu_driver.sv{66) @ 840: env.driver [driver] Getting Request
# ** MESSAGE: ../tb/sv/fpu_driver.sv{69) @ 840: env.driver [driver] Issuing Request
# ** MESSAGE: ../tb/sv/fpu_monitor.sv{57) @ 840: env.monitor [env.monitor] Getting Response
# ** MESSAGE: ../tb/sv/fpu_monitor.sv{127) @ 840: env.monitor [env.monitor] response: FPU Response: a=-2.961687e-024, b=-1.254015e-004, op=OP_ADD, round = ROUND_ZERO, result = -1.254015e-004 with status =00000001
# ** MESSAGE: @ 840: env.comparator [Comparator Match] FPU Response: a=-2.961687e-024, b=-1.254015e-004, op=OP_ADD, round = ROUND_ZERO, result = -1.254015e-004 with status =00000000
# ** MESSAGE: ../tb/sv/fpu_coverage.sv{137) @ 840: env.coverage [env.coverage] cover respose: FPU Response: a=-2.961687e-024, b=-1.254015e-004, op=OP_ADD, round = ROUND_ZERO, result = -1.254015e-004 with status =00000001
# ** MESSAGE: ../tb/sv/fpu_monitor.sv{51) @ 880: env.monitor [env.monitor] Getting Request
# ** MESSAGE: ../tb/sv/fpu_monitor.sv{87) @ 880: env.monitor [monitor] request: FPU Request: a=-1.214357e+000, b=3.056995e-004, op=OP_SQR, round = ROUND_EVEN
# ** MESSAGE: ../tb/sv/fpu_tlm_adapter.sv{51) @ 880: env.adapter [Adapter] master --> request: FPU Request: a=-1.214357e+000, b=3.056995e-004, op=OP_SQR, round = ROUND_EVEN
# ** MESSAGE: ../tb/sv/fpu_tlm_dpi_c.sv{47) @ 880: env.TLM [tlm] TLM request: FPU Request: a=-1.214357e+000, b=3.056995e-004, op=OP_SQR, round = ROUND_EVEN
# ** MESSAGE: ../tb/sv/fpu_tlm_dpi_c.sv{53) @ 880: env.TLM [tlm] TLM response: FPU Response: a=-1.214357e+000, b=3.056995e-004, op=OP_SQR, round = ROUND_EVEN, result = 1.#QNAN0e+000 with status =00000000
# ** MESSAGE: ../tb/sv/fpu_tlm_adapter.sv{59) @ 880: env.adapter [Master] master <-- response: FPU Response: a=-1.214357e+000, b=3.056995e-004, op=OP_SQR, round = ROUND_EVEN, result = 1.#QNAN0e+000 with status =00000000
# ** MESSAGE: ../tb/sv/fpu_driver.sv{74) @ 885: env.driver [driver] Waiting for Response
# ** MESSAGE: ../tb/sv/fpu_driver.sv{79) @ 1230: env.driver [driver] Putting Response
# ** MESSAGE: ../tb/sv/fpu_master.sv{147) @ 1230: env.master [Master] master response: FPU Response: a=-1.214357e+000, b=3.056995e-004, op=OP_SQR, round = ROUND_EVEN, result = -1.#IND00e+000 with status =01000000
# ** MESSAGE: ../tb/sv/fpu_master.sv{140) @ 1230: env.master [Master] master request: FPU Request: a=0.000000e+000, b=-3.322613e+038, op=OP_SUB, round = ROUND_UP
# ** MESSAGE: ../tb/sv/fpu_driver.sv{66) @ 1240: env.driver [driver] Getting Request
# ** MESSAGE: ../tb/sv/fpu_driver.sv{69) @ 1240: env.driver [driver] Issuing Request
# ** MESSAGE: ../tb/sv/fpu_monitor.sv{57) @ 1240: env.monitor [env.monitor] Getting Response
# ** MESSAGE: ../tb/sv/fpu_monitor.sv{127) @ 1240: env.monitor [env.monitor] response: FPU Response: a=-1.214357e+000, b=3.056995e-004, op=OP_SQR, round = ROUND_EVEN, result = -1.#IND00e+000 with status =01000000
# ** WARNING: @ 1240: env.comparator [Comparator Mismatch] FPU Response: a=-1.214357e+000, b=3.056995e-004, op=OP_SQR, round = ROUND_EVEN, result = -1.#IND00e+000 with status =01000000 differs from FPU Response: a=-1.214357e+000, b=3.056995e-004, op=OP_SQR, round = ROUND_EVEN, result = 1.#QNAN0e+000 with status =00000000
# ** MESSAGE: ../tb/sv/fpu_coverage.sv{137) @ 1240: env.coverage [env.coverage] cover respose: FPU Response: a=-1.214357e+000, b=3.056995e-004, op=OP_SQR, round = ROUND_EVEN, result = -1.#IND00e+000 with status =01000000
# ** MESSAGE: ../tb/sv/fpu_monitor.sv{51) @ 1400: env.monitor [env.monitor] Getting Request
# ** MESSAGE: ../tb/sv/fpu_monitor.sv{87) @ 1400: env.monitor [monitor] request: FPU Request: a=0.000000e+000, b=-3.322613e+038, op=OP_SUB, round = ROUND_UP
# ** MESSAGE: ../tb/sv/fpu_tlm_adapter.sv{51) @ 1400: env.adapter [Adapter] master --> request: FPU Request: a=0.000000e+000, b=-3.322613e+038, op=OP_SUB, round = ROUND_UP
# ** MESSAGE: ../tb/sv/fpu_tlm_dpi_c.sv{47) @ 1400: env.TLM [tlm] TLM request: FPU Request: a=0.000000e+000, b=-3.322613e+038, op=OP_SUB, round = ROUND_UP
# ** MESSAGE: ../tb/sv/fpu_tlm_dpi_c.sv{53) @ 1400: env.TLM [tlm] TLM response: FPU Response: a=0.000000e+000, b=-3.322613e+038, op=OP_SUB, round = ROUND_UP, result = 3.322613e+038 with status =00000000
# ** MESSAGE: ../tb/sv/fpu_tlm_adapter.sv{59) @ 1400: env.adapter [Master] master <-- response: FPU Response: a=0.000000e+000, b=-3.322613e+038, op=OP_SUB, round = ROUND_UP, result = 3.322613e+038 with status =00000000
# ** MESSAGE: ../tb/sv/fpu_driver.sv{74) @ 1405: env.driver [driver] Waiting for Response
# ** MESSAGE: ../tb/sv/fpu_driver.sv{79) @ 1480: env.driver [driver] Putting Response
# ** MESSAGE: ../tb/sv/fpu_master.sv{147) @ 1480: env.master [Master] master response: FPU Response: a=0.000000e+000, b=-3.322613e+038, op=OP_SUB, round = ROUND_UP, result = 3.322613e+038 with status =00000000
# ** MESSAGE: ../tb/sv/fpu_master.sv{140) @ 1480: env.master [Master] master request: FPU Request: a=-8.300354e-004, b=1.954717e+031, op=OP_SQR, round = ROUND_ZERO
# ** MESSAGE: ../tb/sv/fpu_driver.sv{66) @ 1490: env.driver [driver] Getting Request
# ** MESSAGE: ../tb/sv/fpu_driver.sv{69) @ 1490: env.driver [driver] Issuing Request
# ** MESSAGE: ../tb/sv/fpu_monitor.sv{57) @ 1490: env.monitor [env.monitor] Getting Response
# ** MESSAGE: ../tb/sv/fpu_monitor.sv{127) @ 1490: env.monitor [env.monitor] response: FPU Response: a=0.000000e+000, b=-3.322613e+038, op=OP_SUB, round = ROUND_UP, result = 3.322613e+038 with status =00000000
# ** MESSAGE: @ 1490: env.comparator [Comparator Match] FPU Response: a=0.000000e+000, b=-3.322613e+038, op=OP_SUB, round = ROUND_UP, result = 3.322613e+038 with status =00000000
# ** MESSAGE: ../tb/sv/fpu_coverage.sv{137) @ 1490: env.coverage [env.coverage] cover respose: FPU Response: a=0.000000e+000, b=-3.322613e+038, op=OP_SUB, round = ROUND_UP, result = 3.322613e+038 with status =00000000
# ** MESSAGE: ../tb/sv/fpu_monitor.sv{51) @ 1590: env.monitor [env.monitor] Getting Request
# ** MESSAGE: ../tb/sv/fpu_monitor.sv{87) @ 1590: env.monitor [monitor] request: FPU Request: a=-8.300354e-004, b=1.954717e+031, op=OP_SQR, round = ROUND_ZERO
# ** MESSAGE: ../tb/sv/fpu_tlm_adapter.sv{51) @ 1590: env.adapter [Adapter] master --> request: FPU Request: a=-8.300354e-004, b=1.954717e+031, op=OP_SQR, round = ROUND_ZERO
# ** MESSAGE: ../tb/sv/fpu_tlm_dpi_c.sv{47) @ 1590: env.TLM [tlm] TLM request: FPU Request: a=-8.300354e-004, b=1.954717e+031, op=OP_SQR, round = ROUND_ZERO
# ** MESSAGE: ../tb/sv/fpu_tlm_dpi_c.sv{53) @ 1590: env.TLM [tlm] TLM response: FPU Response: a=-8.300354e-004, b=1.954717e+031, op=OP_SQR, round = ROUND_ZERO, result = 1.#QNAN0e+000 with status =00000000
# ** MESSAGE: ../tb/sv/fpu_tlm_adapter.sv{59) @ 1590: env.adapter [Master] master <-- response: FPU Response: a=-8.300354e-004, b=1.954717e+031, op=OP_SQR, round = ROUND_ZERO, result = 1.#QNAN0e+000 with status =00000000
# ** MESSAGE: ../tb/sv/fpu_driver.sv{74) @ 1595: env.driver [driver] Waiting for Response
# ** MESSAGE: ../tb/sv/fpu_driver.sv{79) @ 1940: env.driver [driver] Putting Response
# ** MESSAGE: ../tb/sv/fpu_master.sv{147) @ 1940: env.master [Master] master response: FPU Response: a=-8.300354e-004, b=1.954717e+031, op=OP_SQR, round = ROUND_ZERO, result = -1.#IND00e+000 with status =01000000
# ** MESSAGE: ../tb/sv/fpu_master.sv{140) @ 1940: env.master [Master] master request: FPU Request: a=3.210244e-037, b=1.987264e-020, op=OP_ADD, round = ROUND_DOWN
# ** MESSAGE: ../tb/sv/fpu_driver.sv{66) @ 1950: env.driver [driver] Getting Request
# ** MESSAGE: ../tb/sv/fpu_driver.sv{69) @ 1950: env.driver [driver] Issuing Request
# ** MESSAGE: ../tb/sv/fpu_monitor.sv{57) @ 1950: env.monitor [env.monitor] Getting Response
# ** MESSAGE: ../tb/sv/fpu_monitor.sv{127) @ 1950: env.monitor [env.monitor] response: FPU Response: a=-8.300354e-004, b=1.954717e+031, op=OP_SQR, round = ROUND_ZERO, result = -1.#IND00e+000 with status =01000000
# ** MESSAGE: @ 1950: env.comparator [Comparator Match] FPU Response: a=-8.300354e-004, b=1.954717e+031, op=OP_SQR, round = ROUND_ZERO, result = 1.#QNAN0e+000 with status =00000000
# ** MESSAGE: ../tb/sv/fpu_coverage.sv{137) @ 1950: env.coverage [env.coverage] cover respose: FPU Response: a=-8.300354e-004, b=1.954717e+031, op=OP_SQR, round = ROUND_ZERO, result = -1.#IND00e+000 with status =01000000
# ** MESSAGE: ../tb/sv/fpu_monitor.sv{51) @ 2100: env.monitor [env.monitor] Getting Request
# ** MESSAGE: ../tb/sv/fpu_monitor.sv{87) @ 2100: env.monitor [monitor] request: FPU Request: a=3.210244e-037, b=1.987264e-020, op=OP_ADD, round = ROUND_DOWN
# ** MESSAGE: ../tb/sv/fpu_tlm_adapter.sv{51) @ 2100: env.adapter [Adapter] master --> request: FPU Request: a=3.210244e-037, b=1.987264e-020, op=OP_ADD, round = ROUND_DOWN
# ** MESSAGE: ../tb/sv/fpu_tlm_dpi_c.sv{47) @ 2100: env.TLM [tlm] TLM request: FPU Request: a=3.210244e-037, b=1.987264e-020, op=OP_ADD, round = ROUND_DOWN
# ** MESSAGE: ../tb/sv/fpu_tlm_dpi_c.sv{53) @ 2100: env.TLM [tlm] TLM response: FPU Response: a=3.210244e-037, b=1.987264e-020, op=OP_ADD, round = ROUND_DOWN, result = 1.987264e-020 with status =00000000
# ** MESSAGE: ../tb/sv/fpu_tlm_adapter.sv{59) @ 2100: env.adapter [Master] master <-- response: FPU Response: a=3.210244e-037, b=1.987264e-020, op=OP_ADD, round = ROUND_DOWN, result = 1.987264e-020 with status =00000000
# ** MESSAGE: ../tb/sv/fpu_driver.sv{74) @ 2105: env.driver [driver] Waiting for Response
# ** MESSAGE: ../tb/sv/fpu_driver.sv{79) @ 2180: env.driver [driver] Putting Response
# ** MESSAGE: ../tb/sv/fpu_master.sv{147) @ 2180: env.master [Master] master response: FPU Response: a=3.210244e-037, b=1.987264e-020, op=OP_ADD, round = ROUND_DOWN, result = 1.987264e-020 with status =00000001
# ** MESSAGE: ../tb/sv/fpu_master.sv{140) @ 2180: env.master [Master] master request: FPU Request: a=0.000000e+000, b=2.610513e-021, op=OP_SUB, round = ROUND_EVEN
# ** MESSAGE: ../tb/sv/fpu_driver.sv{66) @ 2190: env.driver [driver] Getting Request
# ** MESSAGE: ../tb/sv/fpu_driver.sv{69) @ 2190: env.driver [driver] Issuing Request
# ** MESSAGE: ../tb/sv/fpu_monitor.sv{57) @ 2190: env.monitor [env.monitor] Getting Response
# ** MESSAGE: ../tb/sv/fpu_monitor.sv{127) @ 2190: env.monitor [env.monitor] response: FPU Response: a=3.210244e-037, b=1.987264e-020, op=OP_ADD, round = ROUND_DOWN, result = 1.987264e-020 with status =00000001
# ** MESSAGE: @ 2190: env.comparator [Comparator Match] FPU Response: a=3.210244e-037, b=1.987264e-020, op=OP_ADD, round = ROUND_DOWN, result = 1.987264e-020 with status =00000000
# ** MESSAGE: ../tb/sv/fpu_coverage.sv{137) @ 2190: env.coverage [env.coverage] cover respose: FPU Response: a=3.210244e-037, b=1.987264e-020, op=OP_ADD, round = ROUND_DOWN, result = 1.987264e-020 with status =00000001
# ** MESSAGE: ../tb/sv/fpu_monitor.sv{51) @ 2280: env.monitor [env.monitor] Getting Request
# ** MESSAGE: ../tb/sv/fpu_monitor.sv{87) @ 2280: env.monitor [monitor] request: FPU Request: a=0.000000e+000, b=2.610513e-021, op=OP_SUB, round = ROUND_EVEN
# ** MESSAGE: ../tb/sv/fpu_tlm_adapter.sv{51) @ 2280: env.adapter [Adapter] master --> request: FPU Request: a=0.000000e+000, b=2.610513e-021, op=OP_SUB, round = ROUND_EVEN
# ** MESSAGE: ../tb/sv/fpu_tlm_dpi_c.sv{47) @ 2280: env.TLM [tlm] TLM request: FPU Request: a=0.000000e+000, b=2.610513e-021, op=OP_SUB, round = ROUND_EVEN
# ** MESSAGE: ../tb/sv/fpu_tlm_dpi_c.sv{53) @ 2280: env.TLM [tlm] TLM response: FPU Response: a=0.000000e+000, b=2.610513e-021, op=OP_SUB, round = ROUND_EVEN, result = -2.610513e-021 with status =00000000
# ** MESSAGE: ../tb/sv/fpu_tlm_adapter.sv{59) @ 2280: env.adapter [Master] master <-- response: FPU Response: a=0.000000e+000, b=2.610513e-021, op=OP_SUB, round = ROUND_EVEN, result = -2.610513e-021 with status =00000000
# ** MESSAGE: ../tb/sv/fpu_driver.sv{74) @ 2285: env.driver [driver] Waiting for Response
# ** MESSAGE: ../tb/sv/fpu_driver.sv{79) @ 2360: env.driver [driver] Putting Response
# ** MESSAGE: ../tb/sv/fpu_master.sv{147) @ 2360: env.master [Master] master response: FPU Response: a=0.000000e+000, b=2.610513e-021, op=OP_SUB, round = ROUND_EVEN, result = -2.610513e-021 with status =00000000
# ** MESSAGE: ../tb/sv/fpu_master.sv{140) @ 2360: env.master [Master] master request: FPU Request: a=4.840854e+020, b=-4.079480e+010, op=OP_MUL, round = ROUND_ZERO
# ** MESSAGE: ../tb/sv/fpu_driver.sv{66) @ 2370: env.driver [driver] Getting Request
# ** MESSAGE: ../tb/sv/fpu_driver.sv{69) @ 2370: env.driver [driver] Issuing Request
# ** MESSAGE: ../tb/sv/fpu_monitor.sv{57) @ 2370: env.monitor [env.monitor] Getting Response
# ** MESSAGE: ../tb/sv/fpu_monitor.sv{127) @ 2370: env.monitor [env.monitor] response: FPU Response: a=0.000000e+000, b=2.610513e-021, op=OP_SUB, round = ROUND_EVEN, result = -2.610513e-021 with status =00000000
# ** MESSAGE: @ 2370: env.comparator [Comparator Match] FPU Response: a=0.000000e+000, b=2.610513e-021, op=OP_SUB, round = ROUND_EVEN, result = -2.610513e-021 with status =00000000
# ** MESSAGE: ../tb/sv/fpu_coverage.sv{137) @ 2370: env.coverage [env.coverage] cover respose: FPU Response: a=0.000000e+000, b=2.610513e-021, op=OP_SUB, round = ROUND_EVEN, result = -2.610513e-021 with status =00000000
# ** MESSAGE: ../tb/sv/fpu_monitor.sv{51) @ 2450: env.monitor [env.monitor] Getting Request
# ** MESSAGE: ../tb/sv/fpu_monitor.sv{87) @ 2450: env.monitor [monitor] request: FPU Request: a=4.840854e+020, b=-4.079480e+010, op=OP_MUL, round = ROUND_ZERO
# ** MESSAGE: ../tb/sv/fpu_tlm_adapter.sv{51) @ 2450: env.adapter [Adapter] master --> request: FPU Request: a=4.840854e+020, b=-4.079480e+010, op=OP_MUL, round = ROUND_ZERO
# ** MESSAGE: ../tb/sv/fpu_tlm_dpi_c.sv{47) @ 2450: env.TLM [tlm] TLM request: FPU Request: a=4.840854e+020, b=-4.079480e+010, op=OP_MUL, round = ROUND_ZERO
# ** MESSAGE: ../tb/sv/fpu_tlm_dpi_c.sv{53) @ 2450: env.TLM [tlm] TLM response: FPU Response: a=4.840854e+020, b=-4.079480e+010, op=OP_MUL, round = ROUND_ZERO, result = -1.974817e+031 with status =00000000
# ** MESSAGE: ../tb/sv/fpu_tlm_adapter.sv{59) @ 2450: env.adapter [Master] master <-- response: FPU Response: a=4.840854e+020, b=-4.079480e+010, op=OP_MUL, round = ROUND_ZERO, result = -1.974817e+031 with status =00000000
# ** MESSAGE: ../tb/sv/fpu_driver.sv{74) @ 2455: env.driver [driver] Waiting for Response
# ** MESSAGE: ../tb/sv/fpu_driver.sv{79) @ 2580: env.driver [driver] Putting Response
# ** MESSAGE: ../tb/sv/fpu_master.sv{147) @ 2580: env.master [Master] master response: FPU Response: a=4.840854e+020, b=-4.079480e+010, op=OP_MUL, round = ROUND_ZERO, result = -1.974817e+031 with status =00000001
# ** MESSAGE: ../tb/sv/fpu_master.sv{140) @ 2580: env.master [Master] master request: FPU Request: a=0.000000e+000, b=-6.072646e-005, op=OP_DIV, round = ROUND_DOWN
# ** MESSAGE: ../tb/sv/fpu_driver.sv{66) @ 2590: env.driver [driver] Getting Request
# ** MESSAGE: ../tb/sv/fpu_driver.sv{69) @ 2590: env.driver [driver] Issuing Request
# ** MESSAGE: ../tb/sv/fpu_monitor.sv{57) @ 2590: env.monitor [env.monitor] Getting Response
# ** MESSAGE: ../tb/sv/fpu_monitor.sv{127) @ 2590: env.monitor [env.monitor] response: FPU Response: a=4.840854e+020, b=-4.079480e+010, op=OP_MUL, round = ROUND_ZERO, result = -1.974817e+031 with status =00000001
# ** MESSAGE: @ 2590: env.comparator [Comparator Match] FPU Response: a=4.840854e+020, b=-4.079480e+010, op=OP_MUL, round = ROUND_ZERO, result = -1.974817e+031 with status =00000000
# ** MESSAGE: ../tb/sv/fpu_coverage.sv{137) @ 2590: env.coverage [env.coverage] cover respose: FPU Response: a=4.840854e+020, b=-4.079480e+010, op=OP_MUL, round = ROUND_ZERO, result = -1.974817e+031 with status =00000001
# ** MESSAGE: ../tb/sv/fpu_monitor.sv{51) @ 2710: env.monitor [env.monitor] Getting Request
# ** MESSAGE: ../tb/sv/fpu_monitor.sv{87) @ 2710: env.monitor [monitor] request: FPU Request: a=0.000000e+000, b=-6.072646e-005, op=OP_DIV, round = ROUND_DOWN
# ** MESSAGE: ../tb/sv/fpu_tlm_adapter.sv{51) @ 2710: env.adapter [Adapter] master --> request: FPU Request: a=0.000000e+000, b=-6.072646e-005, op=OP_DIV, round = ROUND_DOWN
# ** MESSAGE: ../tb/sv/fpu_tlm_dpi_c.sv{47) @ 2710: env.TLM [tlm] TLM request: FPU Request: a=0.000000e+000, b=-6.072646e-005, op=OP_DIV, round = ROUND_DOWN
# ** MESSAGE: ../tb/sv/fpu_tlm_dpi_c.sv{53) @ 2710: env.TLM [tlm] TLM response: FPU Response: a=0.000000e+000, b=-6.072646e-005, op=OP_DIV, round = ROUND_DOWN, result = 0.000000e+000 with status =00000000
# ** MESSAGE: ../tb/sv/fpu_tlm_adapter.sv{59) @ 2710: env.adapter [Master] master <-- response: FPU Response: a=0.000000e+000, b=-6.072646e-005, op=OP_DIV, round = ROUND_DOWN, result = 0.000000e+000 with status =00000000
# ** MESSAGE: ../tb/sv/fpu_driver.sv{74) @ 2715: env.driver [driver] Waiting for Response
# ** MESSAGE: ../tb/sv/fpu_driver.sv{79) @ 3060: env.driver [driver] Putting Response
# ** MESSAGE: ../tb/sv/fpu_master.sv{147) @ 3060: env.master [Master] master response: FPU Response: a=0.000000e+000, b=-6.072646e-005, op=OP_DIV, round = ROUND_DOWN, result = 0.000000e+000 with status =00100000
# ** MESSAGE: ../tb/sv/fpu_master.sv{140) @ 3060: env.master [Master] master request: FPU Request: a=2.315471e+005, b=1.#QNAN0e+000, op=OP_ADD, round = ROUND_UP
# ** MESSAGE: ../tb/sv/fpu_driver.sv{66) @ 3070: env.driver [driver] Getting Request
# ** MESSAGE: ../tb/sv/fpu_driver.sv{69) @ 3070: env.driver [driver] Issuing Request
# ** MESSAGE: ../tb/sv/fpu_monitor.sv{57) @ 3070: env.monitor [env.monitor] Getting Response
# ** MESSAGE: ../tb/sv/fpu_monitor.sv{127) @ 3070: env.monitor [env.monitor] response: FPU Response: a=0.000000e+000, b=-6.072646e-005, op=OP_DIV, round = ROUND_DOWN, result = 0.000000e+000 with status =00100000
# ** MESSAGE: @ 3070: env.comparator [Comparator Match] FPU Response: a=0.000000e+000, b=-6.072646e-005, op=OP_DIV, round = ROUND_DOWN, result = 0.000000e+000 with status =00000000
# ** MESSAGE: ../tb/sv/fpu_coverage.sv{137) @ 3070: env.coverage [env.coverage] cover respose: FPU Response: a=0.000000e+000, b=-6.072646e-005, op=OP_DIV, round = ROUND_DOWN, result = 0.000000e+000 with status =00100000
# ** MESSAGE: ../tb/sv/fpu_monitor.sv{51) @ 3210: env.monitor [env.monitor] Getting Request
# ** MESSAGE: ../tb/sv/fpu_monitor.sv{87) @ 3210: env.monitor [monitor] request: FPU Request: a=2.315471e+005, b=1.#QNAN0e+000, op=OP_ADD, round = ROUND_UP
# ** MESSAGE: ../tb/sv/fpu_tlm_adapter.sv{51) @ 3210: env.adapter [Adapter] master --> request: FPU Request: a=2.315471e+005, b=1.#QNAN0e+000, op=OP_ADD, round = ROUND_UP
# ** MESSAGE: ../tb/sv/fpu_tlm_dpi_c.sv{47) @ 3210: env.TLM [tlm] TLM request: FPU Request: a=2.315471e+005, b=1.#QNAN0e+000, op=OP_ADD, round = ROUND_UP
# ** MESSAGE: ../tb/sv/fpu_tlm_dpi_c.sv{53) @ 3210: env.TLM [tlm] TLM response: FPU Response: a=2.315471e+005, b=1.#QNAN0e+000, op=OP_ADD, round = ROUND_UP, result = 1.#QNAN0e+000 with status =00000000
# ** MESSAGE: ../tb/sv/fpu_tlm_adapter.sv{59) @ 3210: env.adapter [Master] master <-- response: FPU Response: a=2.315471e+005, b=1.#QNAN0e+000, op=OP_ADD, round = ROUND_UP, result = 1.#QNAN0e+000 with status =00000000
