o_labs/mq_1/labs/verification_plan/Regression_Run_Tue-Nov-20/run3_3.log
# ----------------------------------------------------------------
# AVM-3.0-update-2-MTI  (C) 2005-2007 Mentor Graphics Corporation
# ----------------------------------------------------------------
# ** MESSAGE: ../tb/sv/fpu_master.sv{140) @ 0: env.master [Master] master request: FPU Request: a=1.855042e-034, b=4.746658e+033, op=OP_DIV, round = ROUND_DOWN
# ** MESSAGE: ../tb/sv/fpu_driver.sv{66) @ 15: env.driver [driver] Getting Request
# ** MESSAGE: ../tb/sv/fpu_driver.sv{69) @ 15: env.driver [driver] Issuing Request
# ** MESSAGE: ../tb/sv/fpu_monitor.sv{51) @ 100: env.monitor [env.monitor] Getting Request
# ** MESSAGE: ../tb/sv/fpu_monitor.sv{87) @ 100: env.monitor [monitor] request: FPU Request: a=1.855042e-034, b=4.746658e+033, op=OP_DIV, round = ROUND_DOWN
# ** MESSAGE: ../tb/sv/fpu_tlm_adapter.sv{51) @ 100: env.adapter [Adapter] master --> request: FPU Request: a=1.855042e-034, b=4.746658e+033, op=OP_DIV, round = ROUND_DOWN
# ** MESSAGE: ../tb/sv/fpu_tlm_dpi_c.sv{47) @ 100: env.TLM [tlm] TLM request: FPU Request: a=1.855042e-034, b=4.746658e+033, op=OP_DIV, round = ROUND_DOWN
# ** MESSAGE: ../tb/sv/fpu_tlm_dpi_c.sv{53) @ 100: env.TLM [tlm] TLM response: FPU Response: a=1.855042e-034, b=4.746658e+033, op=OP_DIV, round = ROUND_DOWN, result = 0.000000e+000 with status =00000000
# ** MESSAGE: ../tb/sv/fpu_tlm_adapter.sv{59) @ 100: env.adapter [Master] master <-- response: FPU Response: a=1.855042e-034, b=4.746658e+033, op=OP_DIV, round = ROUND_DOWN, result = 0.000000e+000 with status =00000000
# ** MESSAGE: ../tb/sv/fpu_driver.sv{74) @ 105: env.driver [driver] Waiting for Response
# ** MESSAGE: ../tb/sv/fpu_driver.sv{79) @ 450: env.driver [driver] Putting Response
# ** MESSAGE: ../tb/sv/fpu_master.sv{147) @ 450: env.master [Master] master response: FPU Response: a=1.855042e-034, b=4.746658e+033, op=OP_DIV, round = ROUND_DOWN, result = 0.000000e+000 with status =00100101
# ** MESSAGE: ../tb/sv/fpu_master.sv{140) @ 450: env.master [Master] master request: FPU Request: a=1.#QNAN0e+000, b=1.#QNAN0e+000, op=OP_SUB, round = ROUND_DOWN
# ** MESSAGE: ../tb/sv/fpu_driver.sv{66) @ 460: env.driver [driver] Getting Request
# ** MESSAGE: ../tb/sv/fpu_driver.sv{69) @ 460: env.driver [driver] Issuing Request
# ** MESSAGE: ../tb/sv/fpu_monitor.sv{57) @ 460: env.monitor [env.monitor] Getting Response
# ** MESSAGE: ../tb/sv/fpu_monitor.sv{127) @ 460: env.monitor [env.monitor] response: FPU Response: a=1.855042e-034, b=4.746658e+033, op=OP_DIV, round = ROUND_DOWN, result = 0.000000e+000 with status =00100101
# ** MESSAGE: @ 460: env.comparator [Comparator Match] FPU Response: a=1.855042e-034, b=4.746658e+033, op=OP_DIV, round = ROUND_DOWN, result = 0.000000e+000 with status =00000000
# ** MESSAGE: ../tb/sv/fpu_coverage.sv{137) @ 460: env.coverage [env.coverage] cover respose: FPU Response: a=1.855042e-034, b=4.746658e+033, op=OP_DIV, round = ROUND_DOWN, result = 0.000000e+000 with status =00100101
# ** MESSAGE: ../tb/sv/fpu_monitor.sv{51) @ 610: env.monitor [env.monitor] Getting Request
# ** MESSAGE: ../tb/sv/fpu_monitor.sv{87) @ 610: env.monitor [monitor] request: FPU Request: a=1.#QNAN0e+000, b=1.#QNAN0e+000, op=OP_SUB, round = ROUND_DOWN
# ** MESSAGE: ../tb/sv/fpu_tlm_adapter.sv{51) @ 610: env.adapter [Adapter] master --> request: FPU Request: a=1.#QNAN0e+000, b=1.#QNAN0e+000, op=OP_SUB, round = ROUND_DOWN
# ** MESSAGE: ../tb/sv/fpu_tlm_dpi_c.sv{47) @ 610: env.TLM [tlm] TLM request: FPU Request: a=1.#QNAN0e+000, b=1.#QNAN0e+000, op=OP_SUB, round = ROUND_DOWN
# ** MESSAGE: ../tb/sv/fpu_tlm_dpi_c.sv{53) @ 610: env.TLM [tlm] TLM response: FPU Response: a=1.#QNAN0e+000, b=1.#QNAN0e+000, op=OP_SUB, round = ROUND_DOWN, result = 1.#QNAN0e+000 with status =00000000
# ** MESSAGE: ../tb/sv/fpu_tlm_adapter.sv{59) @ 610: env.adapter [Master] master <-- response: FPU Response: a=1.#QNAN0e+000, b=1.#QNAN0e+000, op=OP_SUB, round = ROUND_DOWN, result = 1.#QNAN0e+000 with status =00000000
# ** MESSAGE: ../tb/sv/fpu_driver.sv{74) @ 615: env.driver [driver] Waiting for Response
# ** MESSAGE: ../tb/sv/fpu_driver.sv{79) @ 690: env.driver [driver] Putting Response
# ** MESSAGE: ../tb/sv/fpu_master.sv{147) @ 690: env.master [Master] master response: FPU Response: a=1.#QNAN0e+000, b=1.#QNAN0e+000, op=OP_SUB, round = ROUND_DOWN, result = 1.#QNAN0e+000 with status =01000000
# ** MESSAGE: ../tb/sv/fpu_master.sv{140) @ 690: env.master [Master] master request: FPU Request: a=5.954397e+022, b=-1.#QNAN0e+000, op=OP_DIV, round = ROUND_UP
# ** MESSAGE: ../tb/sv/fpu_driver.sv{66) @ 700: env.driver [driver] Getting Request
# ** MESSAGE: ../tb/sv/fpu_driver.sv{69) @ 700: env.driver [driver] Issuing Request
# ** MESSAGE: ../tb/sv/fpu_monitor.sv{57) @ 700: env.monitor [env.monitor] Getting Response
# ** MESSAGE: ../tb/sv/fpu_monitor.sv{127) @ 700: env.monitor [env.monitor] response: FPU Response: a=1.#QNAN0e+000, b=1.#QNAN0e+000, op=OP_SUB, round = ROUND_DOWN, result = 1.#QNAN0e+000 with status =01000000
# ** MESSAGE: @ 700: env.comparator [Comparator Match] FPU Response: a=1.#QNAN0e+000, b=1.#QNAN0e+000, op=OP_SUB, round = ROUND_DOWN, result = 1.#QNAN0e+000 with status =00000000
# ** MESSAGE: ../tb/sv/fpu_coverage.sv{137) @ 700: env.coverage [env.coverage] cover respose: FPU Response: a=1.#QNAN0e+000, b=1.#QNAN0e+000, op=OP_SUB, round = ROUND_DOWN, result = 1.#QNAN0e+000 with status =01000000
# ** MESSAGE: ../tb/sv/fpu_monitor.sv{51) @ 820: env.monitor [env.monitor] Getting Request
# ** MESSAGE: ../tb/sv/fpu_monitor.sv{87) @ 820: env.monitor [monitor] request: FPU Request: a=5.954397e+022, b=-1.#QNAN0e+000, op=OP_DIV, round = ROUND_UP
# ** MESSAGE: ../tb/sv/fpu_tlm_adapter.sv{51) @ 820: env.adapter [Adapter] master --> request: FPU Request: a=5.954397e+022, b=-1.#QNAN0e+000, op=OP_DIV, round = ROUND_UP
# ** MESSAGE: ../tb/sv/fpu_tlm_dpi_c.sv{47) @ 820: env.TLM [tlm] TLM request: FPU Request: a=5.954397e+022, b=-1.#QNAN0e+000, op=OP_DIV, round = ROUND_UP
# ** MESSAGE: ../tb/sv/fpu_tlm_dpi_c.sv{53) @ 820: env.TLM [tlm] TLM response: FPU Response: a=5.954397e+022, b=-1.#QNAN0e+000, op=OP_DIV, round = ROUND_UP, result = -1.#QNAN0e+000 with status =00000000
# ** MESSAGE: ../tb/sv/fpu_tlm_adapter.sv{59) @ 820: env.adapter [Master] master <-- response: FPU Response: a=5.954397e+022, b=-1.#QNAN0e+000, op=OP_DIV, round = ROUND_UP, result = -1.#QNAN0e+000 with status =00000000
# ** MESSAGE: ../tb/sv/fpu_driver.sv{74) @ 825: env.driver [driver] Waiting for Response
# ** MESSAGE: ../tb/sv/fpu_driver.sv{79) @ 1170: env.driver [driver] Putting Response
# ** MESSAGE: ../tb/sv/fpu_master.sv{147) @ 1170: env.master [Master] master response: FPU Response: a=5.954397e+022, b=-1.#QNAN0e+000, op=OP_DIV, round = ROUND_UP, result = -1.#IND00e+000 with status =01000011
# ** MESSAGE: ../tb/sv/fpu_master.sv{140) @ 1170: env.master [Master] master request: FPU Request: a=1.#QNAN0e+000, b=-9.615108e-031, op=OP_SUB, round = ROUND_EVEN
# ** MESSAGE: ../tb/sv/fpu_driver.sv{66) @ 1180: env.driver [driver] Getting Request
# ** MESSAGE: ../tb/sv/fpu_driver.sv{69) @ 1180: env.driver [driver] Issuing Request
# ** MESSAGE: ../tb/sv/fpu_monitor.sv{57) @ 1180: env.monitor [env.monitor] Getting Response
# ** MESSAGE: ../tb/sv/fpu_monitor.sv{127) @ 1180: env.monitor [env.monitor] response: FPU Response: a=5.954397e+022, b=-1.#QNAN0e+000, op=OP_DIV, round = ROUND_UP, result = -1.#IND00e+000 with status =01000011
# ** MESSAGE: @ 1180: env.comparator [Comparator Match] FPU Response: a=5.954397e+022, b=-1.#QNAN0e+000, op=OP_DIV, round = ROUND_UP, result = -1.#QNAN0e+000 with status =00000000
# ** MESSAGE: ../tb/sv/fpu_coverage.sv{137) @ 1180: env.coverage [env.coverage] cover respose: FPU Response: a=5.954397e+022, b=-1.#QNAN0e+000, op=OP_DIV, round = ROUND_UP, result = -1.#IND00e+000 with status =01000011
# ** MESSAGE: ../tb/sv/fpu_monitor.sv{51) @ 1360: env.monitor [env.monitor] Getting Request
# ** MESSAGE: ../tb/sv/fpu_monitor.sv{87) @ 1360: env.monitor [monitor] request: FPU Request: a=1.#QNAN0e+000, b=-9.615108e-031, op=OP_SUB, round = ROUND_EVEN
# ** MESSAGE: ../tb/sv/fpu_tlm_adapter.sv{51) @ 1360: env.adapter [Adapter] master --> request: FPU Request: a=1.#QNAN0e+000, b=-9.615108e-031, op=OP_SUB, round = ROUND_EVEN
# ** MESSAGE: ../tb/sv/fpu_tlm_dpi_c.sv{47) @ 1360: env.TLM [tlm] TLM request: FPU Request: a=1.#QNAN0e+000, b=-9.615108e-031, op=OP_SUB, round = ROUND_EVEN
# ** MESSAGE: ../tb/sv/fpu_tlm_dpi_c.sv{53) @ 1360: env.TLM [tlm] TLM response: FPU Response: a=1.#QNAN0e+000, b=-9.615108e-031, op=OP_SUB, round = ROUND_EVEN, result = 1.#QNAN0e+000 with status =00000000
# ** MESSAGE: ../tb/sv/fpu_tlm_adapter.sv{59) @ 1360: env.adapter [Master] master <-- response: FPU Response: a=1.#QNAN0e+000, b=-9.615108e-031, op=OP_SUB, round = ROUND_EVEN, result = 1.#QNAN0e+000 with status =00000000
# ** MESSAGE: ../tb/sv/fpu_driver.sv{74) @ 1365: env.driver [driver] Waiting for Response
# ** MESSAGE: ../tb/sv/fpu_driver.sv{79) @ 1440: env.driver [driver] Putting Response
# ** MESSAGE: ../tb/sv/fpu_master.sv{147) @ 1440: env.master [Master] master response: FPU Response: a=1.#QNAN0e+000, b=-9.615108e-031, op=OP_SUB, round = ROUND_EVEN, result = 1.#QNAN0e+000 with status =01000000
# ** MESSAGE: ../tb/sv/fpu_master.sv{140) @ 1440: env.master [Master] master request: FPU Request: a=-1.114651e-016, b=1.#QNAN0e+000, op=OP_ADD, round = ROUND_DOWN
# ** MESSAGE: ../tb/sv/fpu_driver.sv{66) @ 1450: env.driver [driver] Getting Request
# ** MESSAGE: ../tb/sv/fpu_driver.sv{69) @ 1450: env.driver [driver] Issuing Request
# ** MESSAGE: ../tb/sv/fpu_monitor.sv{57) @ 1450: env.monitor [env.monitor] Getting Response
# ** MESSAGE: ../tb/sv/fpu_monitor.sv{127) @ 1450: env.monitor [env.monitor] response: FPU Response: a=1.#QNAN0e+000, b=-9.615108e-031, op=OP_SUB, round = ROUND_EVEN, result = 1.#QNAN0e+000 with status =01000000
# ** MESSAGE: @ 1450: env.comparator [Comparator Match] FPU Response: a=1.#QNAN0e+000, b=-9.615108e-031, op=OP_SUB, round = ROUND_EVEN, result = 1.#QNAN0e+000 with status =00000000
# ** MESSAGE: ../tb/sv/fpu_coverage.sv{137) @ 1450: env.coverage [env.coverage] cover respose: FPU Response: a=1.#QNAN0e+000, b=-9.615108e-031, op=OP_SUB, round = ROUND_EVEN, result = 1.#QNAN0e+000 with status =01000000
# ** MESSAGE: ../tb/sv/fpu_monitor.sv{51) @ 1470: env.monitor [env.monitor] Getting Request
# ** MESSAGE: ../tb/sv/fpu_monitor.sv{87) @ 1470: env.monitor [monitor] request: FPU Request: a=-1.114651e-016, b=1.#QNAN0e+000, op=OP_ADD, round = ROUND_DOWN
# ** MESSAGE: ../tb/sv/fpu_tlm_adapter.sv{51) @ 1470: env.adapter [Adapter] master --> request: FPU Request: a=-1.114651e-016, b=1.#QNAN0e+000, op=OP_ADD, round = ROUND_DOWN
# ** MESSAGE: ../tb/sv/fpu_tlm_dpi_c.sv{47) @ 1470: env.TLM [tlm] TLM request: FPU Request: a=-1.114651e-016, b=1.#QNAN0e+000, op=OP_ADD, round = ROUND_DOWN
# ** MESSAGE: ../tb/sv/fpu_tlm_dpi_c.sv{53) @ 1470: env.TLM [tlm] TLM response: FPU Response: a=-1.114651e-016, b=1.#QNAN0e+000, op=OP_ADD, round = ROUND_DOWN, result = 1.#QNAN0e+000 with status =00000000
# ** MESSAGE: ../tb/sv/fpu_tlm_adapter.sv{59) @ 1470: env.adapter [Master] master <-- response: FPU Response: a=-1.114651e-016, b=1.#QNAN0e+000, op=OP_ADD, round = ROUND_DOWN, result = 1.#QNAN0e+000 with status =00000000
# ** MESSAGE: ../tb/sv/fpu_driver.sv{74) @ 1475: env.driver [driver] Waiting for Response
# ** MESSAGE: ../tb/sv/fpu_driver.sv{79) @ 1550: env.driver [driver] Putting Response
# ** MESSAGE: ../tb/sv/fpu_master.sv{147) @ 1550: env.master [Master] master response: FPU Response: a=-1.114651e-016, b=1.#QNAN0e+000, op=OP_ADD, round = ROUND_DOWN, result = 1.#QNAN0e+000 with status =01000000
# ** MESSAGE: ../tb/sv/fpu_master.sv{140) @ 1550: env.master [Master] master request: FPU Request: a=0.000000e+000, b=-1.#QNAN0e+000, op=OP_SQR, round = ROUND_ZERO
# ** MESSAGE: ../tb/sv/fpu_driver.sv{66) @ 1560: env.driver [driver] Getting Request
# ** MESSAGE: ../tb/sv/fpu_driver.sv{69) @ 1560: env.driver [driver] Issuing Request
# ** MESSAGE: ../tb/sv/fpu_monitor.sv{57) @ 1560: env.monitor [env.monitor] Getting Response
# ** MESSAGE: ../tb/sv/fpu_monitor.sv{127) @ 1560: env.monitor [env.monitor] response: FPU Response: a=-1.114651e-016, b=1.#QNAN0e+000, op=OP_ADD, round = ROUND_DOWN, result = 1.#QNAN0e+000 with status =01000000
# ** MESSAGE: @ 1560: env.comparator [Comparator Match] FPU Response: a=-1.114651e-016, b=1.#QNAN0e+000, op=OP_ADD, round = ROUND_DOWN, result = 1.#QNAN0e+000 with status =00000000
# ** MESSAGE: ../tb/sv/fpu_coverage.sv{137) @ 1560: env.coverage [env.coverage] cover respose: FPU Response: a=-1.114651e-016, b=1.#QNAN0e+000, op=OP_ADD, round = ROUND_DOWN, result = 1.#QNAN0e+000 with status =01000000
# ** MESSAGE: ../tb/sv/fpu_monitor.sv{51) @ 1660: env.monitor [env.monitor] Getting Request
# ** MESSAGE: ../tb/sv/fpu_monitor.sv{87) @ 1660: env.monitor [monitor] request: FPU Request: a=0.000000e+000, b=-1.#QNAN0e+000, op=OP_SQR, round = ROUND_ZERO
# ** MESSAGE: ../tb/sv/fpu_tlm_adapter.sv{51) @ 1660: env.adapter [Adapter] master --> request: FPU Request: a=0.000000e+000, b=-1.#QNAN0e+000, op=OP_SQR, round = ROUND_ZERO
# ** MESSAGE: ../tb/sv/fpu_tlm_dpi_c.sv{47) @ 1660: env.TLM [tlm] TLM request: FPU Request: a=0.000000e+000, b=-1.#QNAN0e+000, op=OP_SQR, round = ROUND_ZERO
# ** MESSAGE: ../tb/sv/fpu_tlm_dpi_c.sv{53) @ 1660: env.TLM [tlm] TLM response: FPU Response: a=0.000000e+000, b=-1.#QNAN0e+000, op=OP_SQR, round = ROUND_ZERO, result = 0.000000e+000 with status =00000000
# ** MESSAGE: ../tb/sv/fpu_tlm_adapter.sv{59) @ 1660: env.adapter [Master] master <-- response: FPU Response: a=0.000000e+000, b=-1.#QNAN0e+000, op=OP_SQR, round = ROUND_ZERO, result = 0.000000e+000 with status =00000000
# ** MESSAGE: ../tb/sv/fpu_driver.sv{74) @ 1665: env.driver [driver] Waiting for Response
# ** MESSAGE: ../tb/sv/fpu_driver.sv{79) @ 2010: env.driver [driver] Putting Response
# ** MESSAGE: ../tb/sv/fpu_master.sv{147) @ 2010: env.master [Master] master response: FPU Response: a=0.000000e+000, b=-1.#QNAN0e+000, op=OP_SQR, round = ROUND_ZERO, result = 0.000000e+000 with status =00100000
# ** MESSAGE: ../tb/sv/fpu_master.sv{140) @ 2010: env.master [Master] master request: FPU Request: a=-1.#QNAN0e+000, b=1.#QNAN0e+000, op=OP_MUL, round = ROUND_DOWN
# ** MESSAGE: ../tb/sv/fpu_driver.sv{66) @ 2020: env.driver [driver] Getting Request
# ** MESSAGE: ../tb/sv/fpu_driver.sv{69) @ 2020: env.driver [driver] Issuing Request
# ** MESSAGE: ../tb/sv/fpu_monitor.sv{57) @ 2020: env.monitor [env.monitor] Getting Response
# ** MESSAGE: ../tb/sv/fpu_monitor.sv{127) @ 2020: env.monitor [env.monitor] response: FPU Response: a=0.000000e+000, b=-1.#QNAN0e+000, op=OP_SQR, round = ROUND_ZERO, result = 0.000000e+000 with status =00100000
# ** MESSAGE: @ 2020: env.comparator [Comparator Match] FPU Response: a=0.000000e+000, b=-1.#QNAN0e+000, op=OP_SQR, round = ROUND_ZERO, result = 0.000000e+000 with status =00000000
# ** MESSAGE: ../tb/sv/fpu_coverage.sv{137) @ 2020: env.coverage [env.coverage] cover respose: FPU Response: a=0.000000e+000, b=-1.#QNAN0e+000, op=OP_SQR, round = ROUND_ZERO, result = 0.000000e+000 with status =00100000
# ** MESSAGE: ../tb/sv/fpu_monitor.sv{51) @ 2030: env.monitor [env.monitor] Getting Request
# ** MESSAGE: ../tb/sv/fpu_monitor.sv{87) @ 2030: env.monitor [monitor] request: FPU Request: a=-1.#QNAN0e+000, b=1.#QNAN0e+000, op=OP_MUL, round = ROUND_DOWN
# ** MESSAGE: ../tb/sv/fpu_tlm_adapter.sv{51) @ 2030: env.adapter [Adapter] master --> request: FPU Request: a=-1.#QNAN0e+000, b=1.#QNAN0e+000, op=OP_MUL, round = ROUND_DOWN
# ** MESSAGE: ../tb/sv/fpu_tlm_dpi_c.sv{47) @ 2030: env.TLM [tlm] TLM request: FPU Request: a=-1.#QNAN0e+000, b=1.#QNAN0e+000, op=OP_MUL, round = ROUND_DOWN
# ** MESSAGE: ../tb/sv/fpu_tlm_dpi_c.sv{53) @ 2030: env.TLM [tlm] TLM response: FPU Response: a=-1.#QNAN0e+000, b=1.#QNAN0e+000, op=OP_MUL, round = ROUND_DOWN, result = 1.#QNAN0e+000 with status =00000000
# ** MESSAGE: ../tb/sv/fpu_tlm_adapter.sv{59) @ 2030: env.adapter [Master] master <-- response: FPU Response: a=-1.#QNAN0e+000, b=1.#QNAN0e+000, op=OP_MUL, round = ROUND_DOWN, result = 1.#QNAN0e+000 with status =00000000
# ** MESSAGE: ../tb/sv/fpu_driver.sv{74) @ 2035: env.driver [driver] Waiting for Response
# ** MESSAGE: ../tb/sv/fpu_driver.sv{79) @ 2160: env.driver [driver] Putting Response
# ** MESSAGE: ../tb/sv/fpu_master.sv{147) @ 2160: env.master [Master] master response: FPU Response: a=-1.#QNAN0e+000, b=1.#QNAN0e+000, op=OP_MUL, round = ROUND_DOWN, result = -1.#IND00e+000 with status =01000011
# ** MESSAGE: ../tb/sv/fpu_master.sv{140) @ 2160: env.master [Master] master request: FPU Request: a=-1.#QNAN0e+000, b=1.#QNAN0e+000, op=OP_DIV, round = ROUND_UP
# ** MESSAGE: ../tb/sv/fpu_driver.sv{66) @ 2170: env.driver [driver] Getting Request
# ** MESSAGE: ../tb/sv/fpu_driver.sv{69) @ 2170: env.driver [driver] Issuing Request
# ** MESSAGE: ../tb/sv/fpu_monitor.sv{57) @ 2170: env.monitor [env.monitor] Getting Response
# ** MESSAGE: ../tb/sv/fpu_monitor.sv{127) @ 2170: env.monitor [env.monitor] response: FPU Response: a=-1.#QNAN0e+000, b=1.#QNAN0e+000, op=OP_MUL, round = ROUND_DOWN, result = -1.#IND00e+000 with status =01000011
# ** MESSAGE: @ 2170: env.comparator [Comparator Match] FPU Response: a=-1.#QNAN0e+000, b=1.#QNAN0e+000, op=OP_MUL, round = ROUND_DOWN, result = 1.#QNAN0e+000 with status =00000000
# ** MESSAGE: ../tb/sv/fpu_coverage.sv{137) @ 2170: env.coverage [env.coverage] cover respose: FPU Response: a=-1.#QNAN0e+000, b=1.#QNAN0e+000, op=OP_MUL, round = ROUND_DOWN, result = -1.#IND00e+000 with status =01000011
# ** MESSAGE: ../tb/sv/fpu_monitor.sv{51) @ 2250: env.monitor [env.monitor] Getting Request
# ** MESSAGE: ../tb/sv/fpu_monitor.sv{87) @ 2250: env.monitor [monitor] request: FPU Request: a=-1.#QNAN0e+000, b=1.#QNAN0e+000, op=OP_DIV, round = ROUND_UP
# ** MESSAGE: ../tb/sv/fpu_tlm_adapter.sv{51) @ 2250: env.adapter [Adapter] master --> request: FPU Request: a=-1.#QNAN0e+000, b=1.#QNAN0e+000, op=OP_DIV, round = ROUND_UP
# ** MESSAGE: ../tb/sv/fpu_tlm_dpi_c.sv{47) @ 2250: env.TLM [tlm] TLM request: FPU Request: a=-1.#QNAN0e+000, b=1.#QNAN0e+000, op=OP_DIV, round = ROUND_UP
# ** MESSAGE: ../tb/sv/fpu_tlm_dpi_c.sv{53) @ 2250: env.TLM [tlm] TLM response: FPU Response: a=-1.#QNAN0e+000, b=1.#QNAN0e+000, op=OP_DIV, round = ROUND_UP, result = 1.#QNAN0e+000 with status =00000000
# ** MESSAGE: ../tb/sv/fpu_tlm_adapter.sv{59) @ 2250: env.adapter [Master] master <-- response: FPU Response: a=-1.#QNAN0e+000, b=1.#QNAN0e+000, op=OP_DIV, round = ROUND_UP, result = 1.#QNAN0e+000 with status =00000000
# ** MESSAGE: ../tb/sv/fpu_driver.sv{74) @ 2255: env.driver [driver] Waiting for Response
# ** MESSAGE: ../tb/sv/fpu_driver.sv{79) @ 2600: env.driver [driver] Putting Response
# ** MESSAGE: ../tb/sv/fpu_master.sv{147) @ 2600: env.master [Master] master response: FPU Response: a=-1.#QNAN0e+000, b=1.#QNAN0e+000, op=OP_DIV, round = ROUND_UP, result = -1.#IND00e+000 with status =01000011
# ** MESSAGE: ../tb/sv/fpu_master.sv{140) @ 2600: env.master [Master] master request: FPU Request: a=1.996986e+001, b=0.000000e+000, op=OP_SUB, round = ROUND_EVEN
# ** MESSAGE: ../tb/sv/fpu_driver.sv{66) @ 2610: env.driver [driver] Getting Request
# ** MESSAGE: ../tb/sv/fpu_driver.sv{69) @ 2610: env.driver [driver] Issuing Request
# ** MESSAGE: ../tb/sv/fpu_monitor.sv{57) @ 2610: env.monitor [env.monitor] Getting Response
# ** MESSAGE: ../tb/sv/fpu_monitor.sv{127) @ 2610: env.monitor [env.monitor] response: FPU Response: a=-1.#QNAN0e+000, b=1.#QNAN0e+000, op=OP_DIV, round = ROUND_UP, result = -1.#IND00e+000 with status =01000011
# ** MESSAGE: @ 2610: env.comparator [Comparator Match] FPU Response: a=-1.#QNAN0e+000, b=1.#QNAN0e+000, op=OP_DIV, round = ROUND_UP, result = 1.#QNAN0e+000 with status =00000000
# ** MESSAGE: ../tb/sv/fpu_coverage.sv{137) @ 2610: env.coverage [env.coverage] cover respose: FPU Response: a=-1.#QNAN0e+000, b=1.#QNAN0e+000, op=OP_DIV, round = ROUND_UP, result = -1.#IND00e+000 with status =01000011
# ** MESSAGE: ../tb/sv/fpu_monitor.sv{51) @ 2650: env.monitor [env.monitor] Getting Request
# ** MESSAGE: ../tb/sv/fpu_monitor.sv{87) @ 2650: env.monitor [monitor] request: FPU Request: a=1.996986e+001, b=0.000000e+000, op=OP_SUB, round = ROUND_EVEN
# ** MESSAGE: ../tb/sv/fpu_tlm_adapter.sv{51) @ 2650: env.adapter [Adapter] master --> request: FPU Request: a=1.996986e+001, b=0.000000e+000, op=OP_SUB, round = ROUND_EVEN
# ** MESSAGE: ../tb/sv/fpu_tlm_dpi_c.sv{47) @ 2650: env.TLM [tlm] TLM request: FPU Request: a=1.996986e+001, b=0.000000e+000, op=OP_SUB, round = ROUND_EVEN
# ** MESSAGE: ../tb/sv/fpu_tlm_dpi_c.sv{53) @ 2650: env.TLM [tlm] TLM response: FPU Response: a=1.996986e+001, b=0.000000e+000, op=OP_SUB, round = ROUND_EVEN, result = 1.996986e+001 with status =00000000
# ** MESSAGE: ../tb/sv/fpu_tlm_adapter.sv{59) @ 2650: env.adapter [Master] master <-- response: FPU Response: a=1.996986e+001, b=0.000000e+000, op=OP_SUB, round = ROUND_EVEN, result = 1.996986e+001 with status =00000000
# ** MESSAGE: ../tb/sv/fpu_driver.sv{74) @ 2655: env.driver [driver] Waiting for Response
# ** MESSAGE: ../tb/sv/fpu_driver.sv{79) @ 2730: env.driver [driver] Putting Response
# ** MESSAGE: ../tb/sv/fpu_master.sv{147) @ 2730: env.master [Master] master response: FPU Response: a=1.996986e+001, b=0.000000e+000, op=OP_SUB, round = ROUND_EVEN, result = 1.996986e+001 with status =00000000
# ** MESSAGE: ../tb/sv/fpu_master.sv{140) @ 2730: env.master [Master] master request: FPU Request: a=-9.697149e-017, b=1.#QNAN0e+000, op=OP_DIV, round = ROUND_UP
# ** MESSAGE: ../tb/sv/fpu_driver.sv{66) @ 2740: env.driver [driver] Getting Request
# ** MESSAGE: ../tb/sv/fpu_driver.sv{69) @ 2740: env.driver [driver] Issuing Request
# ** MESSAGE: ../tb/sv/fpu_monitor.sv{57) @ 2740: env.monitor [env.monitor] Getting Response
# ** MESSAGE: ../tb/sv/fpu_monitor.sv{127) @ 2740: env.monitor [env.monitor] response: FPU Response: a=1.996986e+001, b=0.000000e+000, op=OP_SUB, round = ROUND_EVEN, result = 1.996986e+001 with status =00000000
# ** MESSAGE: @ 2740: env.comparator [Comparator Match] FPU Response: a=1.996986e+001, b=0.000000e+000, op=OP_SUB, round = ROUND_EVEN, result = 1.996986e+001 with status =00000000
# ** MESSAGE: ../tb/sv/fpu_coverage.sv{137) @ 2740: env.coverage [env.coverage] cover respose: FPU Response: a=1.996986e+001, b=0.000000e+000, op=OP_SUB, round = ROUND_EVEN, result = 1.996986e+001 with status =00000000
# ** MESSAGE: ../tb/sv/fpu_monitor.sv{51) @ 2810: env.monitor [env.monitor] Getting Request
# ** MESSAGE: ../tb/sv/fpu_monitor.sv{87) @ 2810: env.monitor [monitor] request: FPU Request: a=-9.697149e-017, b=1.#QNAN0e+000, op=OP_DIV, round = ROUND_UP
# ** MESSAGE: ../tb/sv/fpu_tlm_adapter.sv{51) @ 2810: env.adapter [Adapter] master --> request: FPU Request: a=-9.697149e-017, b=1.#QNAN0e+000, op=OP_DIV, round = ROUND_UP
# ** MESSAGE: ../tb/sv/fpu_tlm_dpi_c.sv{47) @ 2810: env.TLM [tlm] TLM request: FPU Request: a=-9.697149e-017, b=1.#QNAN0e+000, op=OP_DIV, round = ROUND_UP
# ** MESSAGE: ../tb/sv/fpu_tlm_dpi_c.sv{53) @ 2810: env.TLM [tlm] TLM response: FPU Response: a=-9.697149e-017, b=1.#QNAN0e+000, op=OP_DIV, round = ROUND_UP, result = 1.#QNAN0e+000 with status =00000000
# ** MESSAGE: ../tb/sv/fpu_tlm_adapter.sv{59) @ 2810: env.adapter [Master] master <-- response: FPU Response: a=-9.697149e-017, b=1.#QNAN0e+000, op=OP_DIV, round = ROUND_UP, result = 1.#QNAN0e+000 with status =00000000
# ** MESSAGE: ../tb/sv/fpu_driver.sv{74) @ 2815: env.driver [driver] Waiting for Response
# ** MESSAGE: ../tb/sv/fpu_driver.sv{79) @ 3160: env.driver [driver] Putting Response
# ** MESSAGE: ../tb/sv/fpu_master.sv{147) @ 3160: env.master [Master] master response: FPU Response: a=-9.697149e-017, b=1.#QNAN0e+000, op=OP_DIV, round = ROUND_UP, result = -1.#IND00e+000 with status =01000011
# ** MESSAGE: ../tb/sv/fpu_master.sv{140) @ 3160: env.master [Master] master request: FPU Request: a=1.#QNAN0e+000, b=1.#QNAN0e+000, op=OP_MUL, round = ROUND_EVEN
# ** MESSAGE: ../tb/sv/fpu_driver.sv{66) @ 3170: env.driver [driver] Getting Request
# ** MESSAGE: ../tb/sv/fpu_driver.sv{69) @ 3170: env.driver [driver] Issuing Request
# ** MESSAGE: ../tb/sv/fpu_monitor.sv{57) @ 3170: env.monitor [env.monitor] Getting Response
# ** MESSAGE: ../tb/sv/fpu_monitor.sv{127) @ 3170: env.monitor [env.monitor] response: FPU Response: a=-9.697149e-017, b=1.#QNAN0e+000, op=OP_DIV, round = ROUND_UP, result = -1.#IND00e+000 with status =01000011
# ** MESSAGE: @ 3170: env.comparator [Comparator Match] FPU Response: a=-9.697149e-017, b=1.#QNAN0e+000, op=OP_DIV, round = ROUND_UP, result = 1.#QNAN0e+000 with status =00000000
# ** MESSAGE: ../tb/sv/fpu_coverage.sv{137) @ 3170: env.coverage [env.coverage] cover respose: FPU Response: a=-9.697149e-017, b=1.#QNAN0e+000, op=OP_DIV, round = ROUND_UP, result = -1.#IND00e+000 with status =01000011
# ** MESSAGE: ../tb/sv/fpu_monitor.sv{51) @ 3230: env.monitor [env.monitor] Getting Request
# ** MESSAGE: ../tb/sv/fpu_monitor.sv{87) @ 3230: env.monitor [monitor] request: FPU Request: a=1.#QNAN0e+000, b=1.#QNAN0e+000, op=OP_MUL, round = ROUND_EVEN
